[
  {
    "sentence": "I'm really missing the excitement and energy of the live streams, it's just not the same without them."
  },
  {
    "sentence": "It's been $DAYS since the last stream and I'm feeling withdrawal symptoms, I need my fix of gaming and entertainment!"
  },
  {
    "sentence": "I'm craving some new content, whether it's a new game or an old favorite, I just need something to hold me over until the next stream!"
  },
  {
    "sentence": "I hope everything is okay, it's been $DAYS since the last stream and I'm starting to get worried, a little update would be nice."
  },
  {
    "sentence": "I'm so bored without the streams, I need my daily dose of entertainment and laughter, and only they can provide it!"
  },
  {
    "sentence": "Can someone please bring back the streams ASAP, it's been $DAYS and I'm dying over here, I need my gaming fix!"
  },
  {
    "sentence": "I'm not sure what's going on, but it's been $DAYS since the last stream and I'm feeling lost without it, I've tried to fill the void with other hobbies, but nothing seems to be working."
  },
  {
    "sentence": "I'm really missing the sense of community and camaraderie that comes with the live streams, it's just not the same without them."
  },
  {
    "sentence": "Does anyone know what's going on with the streams, it's been $DAYS and I'm starting to think I'll never see another one, I've checked social media, but there's been no update."
  },
  {
    "sentence": "I'm sending all my positive vibes to the streamers, hoping they're doing okay and will be back to entertaining us soon, we're all thinking about them and missing the streams terribly!"
  },
  {
    "sentence": "Oh no! It's been $DAYS since I last saw your streams. I really miss watching your amazing content!"
  },
  {
    "sentence": "It's been $DAYS and I haven't seen your stream. I hope you come back soon; your streams always made my day!"
  },
  {
    "sentence": "Wow, $DAYS without your streams feels like forever. Your content is truly missed!"
  },
  {
    "sentence": "It's been $DAYS since you last streamed, and I have to say, it’s just not the same without your content."
  },
  {
    "sentence": "I can't believe it's been $DAYS already! Your streams always brought so much joy; hope to see you back soon."
  },
  {
    "sentence": "The days feel longer without your streams. It's been $DAYS, and I'm really missing the entertainment!"
  },
  {
    "sentence": "It’s been $DAYS since your last stream, and I’ve been feeling a bit lost without your content."
  },
  {
    "sentence": "Your streams brought so much excitement! It's been $DAYS since you last streamed, and I’m really missing it."
  },
  {
    "sentence": "$DAYS without your streams? That’s way too long! Hope to see you back on soon."
  },
  {
    "sentence": "I’ve been counting the days... it’s been $DAYS since your last stream, and I miss the good times watching your content."
  }
]
