vorname,nachname,user_id,Races,Wins,Podiums,Pole_Positions,Fastest_Laps,Top5s,Top10s,Avg_Finishing,Avg_Qualifying,Points,Points_per_Race,Winrate,Podiumrate,Pole_Position_Rate,Fastest_Lap_Rate,Sum_Elo_Gain,Sum_SR_Gain,Sum_IPs,IP_per_Race,average_SOF,Q_to_R
Abe,Santema,13576,5,0,0,0,0,0,1,20.0,20.6,4170.0,834.0,0.0,0.0,0.0,0.0,38,-0.19999999999999996,67,13.4,6019.6,0.6000000000000014
Aidan,Walsingham,33715,12,1,2,1,3,5,8,10.666666666666666,8.333333333333334,13796.0,1149.6666666666667,0.08333333333333333,0.16666666666666666,0.08333333333333333,0.25,463,0.72,185,15.416666666666666,5947.666666666667,-2.333333333333332
Albin,Månsson,38321,7,0,0,0,0,0,1,19.857142857142858,21.714285714285715,6650.0,950.0,0.0,0.0,0.0,0.0,16,-0.57,167,23.857142857142858,6041.428571428572,1.8571428571428577
Alexander,Krouk,21237,2,0,0,0,0,0,0,30.5,32.0,1498.0,749.0,0.0,0.0,0.0,0.0,-113,-0.8799999999999999,89,44.5,5752.0,1.5
Alexandre,Tchinos,43096,2,0,0,0,0,0,0,26.5,32.5,1642.0,821.0,0.0,0.0,0.0,0.0,-74,-0.43,51,25.5,5894.0,6.0
Amedeo,Castorino,5105,12,1,6,3,2,11,12,3.5833333333333335,4.416666666666667,15748.0,1312.3333333333333,0.08333333333333333,0.5,0.25,0.16666666666666666,1215,0.9400000000000001,128,10.666666666666666,5947.666666666667,0.8333333333333335
Amir,Hosseini,18938,4,0,0,0,0,0,1,16.25,12.0,3364.0,841.0,0.0,0.0,0.0,0.0,106,-0.62,66,16.5,5925.75,-4.25
Andrea,Catania,39703,1,0,0,0,0,0,0,34.0,26.0,0.0,0.0,0.0,0.0,0.0,0.0,-81,-0.53,10,10.0,6055.0,-8.0
Andrii,Pozdniakov,36921,2,0,0,0,0,0,0,27.5,20.5,1606.0,803.0,0.0,0.0,0.0,0.0,-117,-0.73,75,37.5,5913.0,-7.0
Artyom,Manisha,16975,2,0,0,0,0,0,0,33.0,25.5,758.0,379.0,0.0,0.0,0.0,0.0,-237,-0.7000000000000001,42,21.0,5913.0,-7.5
Axel,Ramounet,63960,1,0,0,0,0,0,0,19.0,15.0,960.0,960.0,0.0,0.0,0.0,0.0,-13,-0.14,22,22.0,6068.0,-4.0
Bastian,Richter,4271,1,0,1,0,0,1,1,3.0,3.0,1326.0,1326.0,0.0,1.0,0.0,0.0,222,0.08,26,26.0,5865.0,0.0
Bernhardt,Barkhuizen,43739,1,0,0,0,0,0,0,34.0,24.0,686.0,686.0,0.0,0.0,0.0,0.0,-76,0.01,24,24.0,5468.0,-10.0
Chris,Warner,20613,1,0,0,0,0,0,0,25.0,13.0,848.0,848.0,0.0,0.0,0.0,0.0,-1,-0.19,33,33.0,5468.0,-12.0
Christiaan,du Plooy,30345,1,0,0,0,0,0,0,21.0,18.0,920.0,920.0,0.0,0.0,0.0,0.0,46,0.14,9,9.0,5818.0,-3.0
Christopher,Hoffmann,3264,3,0,0,0,0,0,0,28.333333333333332,28.333333333333332,1754.0,584.6666666666666,0.0,0.0,0.0,0.0,-176,-0.37,53,17.666666666666668,5764.666666666667,0.0
Cody,Sherratt,26085,8,0,1,0,0,1,1,22.25,17.625,6122.0,765.25,0.0,0.125,0.0,0.0,-177,-1.31,142,17.75,5979.125,-4.625
Daniel,Nadarzinski | LSD,30143,2,0,0,0,0,0,0,22.5,31.0,1788.0,894.0,0.0,0.0,0.0,0.0,23,-0.05,46,23.0,5619.5,8.5
Daniil,Tylyk,29498,1,0,0,0,0,0,0,33.0,21.0,0.0,0.0,0.0,0.0,0.0,0.0,-159,0.0,6,6.0,6292.0,-12.0
Dario,iemmulo,42095,3,0,0,0,0,0,1,24.333333333333332,12.0,1968.0,656.0,0.0,0.0,0.0,0.0,-262,-0.74,71,23.666666666666668,6250.666666666667,-12.333333333333332
David,Pertile,4976,3,0,0,0,0,0,2,9.333333333333334,5.666666666666667,3496.0,1165.3333333333333,0.0,0.0,0.0,0.0,385,0.26,61,20.333333333333332,6192.333333333333,-3.666666666666667
Dennis,Wietschorke,62174,9,0,0,0,0,0,0,21.22222222222222,26.666666666666668,7686.0,854.0,0.0,0.0,0.0,0.0,-75,-0.03999999999999995,134,14.88888888888889,5846.666666666667,5.444444444444446
Edoardo,Ruggiero,83928,1,0,0,0,0,0,1,7.0,15.0,1216.0,1216.0,0.0,0.0,0.0,0.0,188,0.39,3,3.0,5862.0,8.0
Erik,Gesell,46036,3,0,0,0,0,0,1,20.0,13.0,2236.0,745.3333333333334,0.0,0.0,0.0,0.0,32,-0.6000000000000001,64,21.333333333333332,5942.666666666667,-7.0
Erik,Mucska,25656,4,0,0,0,0,0,0,27.75,30.0,3194.0,798.5,0.0,0.0,0.0,0.0,-359,0.05,75,18.75,6098.75,2.25
Ethan,Faulkner,77577,1,0,0,0,0,0,0,40.0,,578.0,578.0,0.0,0.0,0.0,0.0,-127,0.0,0,0.0,5862.0,
Fabien,Nouguier,40406,5,0,0,0,0,0,0,27.0,31.8,4060.0,812.0,0.0,0.0,0.0,0.0,-139,0.3,73,14.6,5854.8,4.800000000000001
Fabio,Zerbin,89924,6,0,0,0,0,0,0,22.166666666666668,17.166666666666668,5412.0,902.0,0.0,0.0,0.0,0.0,30,-0.12999999999999998,119,19.833333333333332,5958.0,-5.0
Fabrizio,Campanella,25889,12,0,0,0,0,1,4,12.333333333333334,19.75,13194.0,1099.5,0.0,0.0,0.0,0.0,721,0.49000000000000005,203,16.916666666666668,5947.666666666667,7.416666666666666
Finn,Zimball,36752,1,0,0,0,0,0,0,17.0,20.0,1000.0,1000.0,0.0,0.0,0.0,0.0,53,-0.04,30,30.0,5771.0,3.0
Florian,Dührkop,3933,10,0,2,1,0,2,5,18.5,8.6,8008.0,800.8,0.0,0.2,0.1,0.0,-200,-1.44,174,17.4,6004.2,-9.9
Gabor,Szabo,57575,3,0,0,0,0,0,0,32.666666666666664,34.666666666666664,2130.0,710.0,0.0,0.0,0.0,0.0,-212,-0.16,46,15.333333333333334,5731.666666666667,2.0
George,Boothby,4215,11,3,5,1,0,6,9,7.363636363636363,6.2727272727272725,12858.0,1168.909090909091,0.2727272727272727,0.45454545454545453,0.09090909090909091,0.0,261,0.54,151,13.727272727272727,5963.727272727273,-1.0909090909090908
Grantas,Kareckas,8357,1,0,0,0,0,0,1,7.0,11.0,1216.0,1216.0,0.0,0.0,0.0,0.0,93,0.06,16,16.0,6305.0,4.0
Gábor,Pór,45054,1,0,0,0,0,0,0,26.0,29.0,830.0,830.0,0.0,0.0,0.0,0.0,-12,0.01,23,23.0,5733.0,3.0
Henrik,Gamball,795,1,0,0,0,0,0,0,12.0,17.0,1100.0,1100.0,0.0,0.0,0.0,0.0,118,0.0,21,21.0,5862.0,5.0
Henrik,Theurer,73293,2,0,0,0,0,0,0,26.5,24.5,940.0,470.0,0.0,0.0,0.0,0.0,-118,-0.47,27,13.5,5943.0,-2.0
Igor,Murdasov,17851,4,0,0,0,0,0,0,25.25,19.0,3386.0,846.5,0.0,0.0,0.0,0.0,-25,-0.41999999999999993,128,32.0,5881.25,-6.25
Jack,Alexander,6623,6,0,2,0,0,3,4,10.0,5.333333333333333,6994.0,1165.6666666666667,0.0,0.3333333333333333,0.0,0.0,705,0.12,118,19.666666666666668,6029.666666666667,-4.666666666666667
Jack,Olivier,15766,2,0,0,0,0,0,0,24.5,26.0,1000.0,500.0,0.0,0.0,0.0,0.0,-117,-0.9299999999999999,52,26.0,6173.5,1.5
Jakob,Ostermann,1063,2,0,1,0,1,1,1,8.5,9.5,2400.0,1200.0,0.0,0.5,0.0,0.5,139,-0.06999999999999998,38,19.0,6038.0,1.0
Jakub,Jurkiewicz,127861,1,0,0,0,0,0,0,16.0,32.0,1020.0,1020.0,0.0,0.0,0.0,0.0,99,0.2,10,10.0,5771.0,16.0
Janne,Laxén,78786,2,0,0,0,0,0,0,32.5,35.5,1426.0,713.0,0.0,0.0,0.0,0.0,-135,-0.42999999999999994,60,30.0,5600.5,3.0
Jannes,Reinders,24830,2,0,0,0,0,0,0,34.0,20.0,0.0,0.0,0.0,0.0,0.0,0.0,-300,-0.5499999999999999,48,24.0,6136.0,-14.0
Jaroslav,Honzik,14298,10,1,1,0,0,1,4,14.4,17.7,10674.0,1067.4,0.1,0.1,0.0,0.0,-144,0.52,129,12.9,5914.9,3.299999999999999
Jeffrey,Miguel Reno Richie,33247,1,0,0,0,0,0,0,24.0,37.0,866.0,866.0,0.0,0.0,0.0,0.0,-56,0.03,18,18.0,6305.0,13.0
Jimmy,Holm,5553,1,0,0,0,0,0,0,36.0,32.0,0.0,0.0,0.0,0.0,0.0,0.0,-108,-0.6,4,4.0,6055.0,-4.0
Jonathan,Clifford,15373,3,0,0,0,0,0,0,23.0,29.666666666666668,2652.0,884.0,0.0,0.0,0.0,0.0,47,0.0,40,13.333333333333334,5657.333333333333,6.666666666666668
Josef,Keufl,12645,1,0,0,0,0,0,0,24.0,32.0,866.0,866.0,0.0,0.0,0.0,0.0,1,-0.08,27,27.0,5733.0,8.0
Joshua,Grüning,8171,1,0,0,0,0,0,0,25.0,36.0,848.0,848.0,0.0,0.0,0.0,0.0,4,-0.22,36,36.0,5980.0,11.0
Jyeed,Hutchinson,8613,1,0,0,0,0,0,0,35.0,15.0,0.0,0.0,0.0,0.0,0.0,0.0,-230,-0.6,13,13.0,5771.0,-20.0
Kaj,Paw,79530,3,0,0,0,0,0,0,23.666666666666668,30.0,2618.0,872.6666666666666,0.0,0.0,0.0,0.0,21,0.020000000000000018,75,25.0,5897.0,6.333333333333332
Kamil,Pawlowski,59249,1,0,0,0,0,0,0,12.0,18.0,1100.0,1100.0,0.0,0.0,0.0,0.0,103,0.13,19,19.0,6292.0,6.0
Kevin,Taddei,40102,4,0,1,0,0,1,1,23.5,17.0,2346.0,586.5,0.0,0.25,0.0,0.0,4,-0.33,53,13.25,5954.5,-6.5
Leon,Berndt,2453,2,0,0,0,0,0,1,10.5,13.0,2280.0,1140.0,0.0,0.0,0.0,0.0,227,0.16999999999999998,29,14.5,5840.0,2.5
Leonardo,Baccaglini,93210,1,0,0,0,0,0,0,40.0,15.0,0.0,0.0,0.0,0.0,0.0,0.0,-136,-0.55,14,14.0,5468.0,-25.0
Leyton,Austin,24416,2,0,0,0,0,0,0,29.0,29.0,1552.0,776.0,0.0,0.0,0.0,0.0,-79,-0.060000000000000005,45,22.5,5752.0,0.0
Lorenzo,Magnani,18775,1,0,0,0,0,0,0,24.0,18.0,866.0,866.0,0.0,0.0,0.0,0.0,-34,0.06,16,16.0,6055.0,-6.0
Luca,Balconi,18600,1,0,0,0,0,0,0,29.0,38.0,776.0,776.0,0.0,0.0,0.0,0.0,-25,0.0,14,14.0,5468.0,9.0
Luis,Roters,4439,1,0,0,0,0,0,0,31.0,32.0,740.0,740.0,0.0,0.0,0.0,0.0,-80,-0.11,24,24.0,6305.0,1.0
Lukas,Rohde,7404,1,0,0,0,0,0,1,10.0,15.0,1144.0,1144.0,0.0,0.0,0.0,0.0,87,0.18,7,7.0,5733.0,5.0
Luke,Addison,7021,11,0,0,0,0,0,1,22.09090909090909,25.90909090909091,7312.0,664.7272727272727,0.0,0.0,0.0,0.0,-309,-1.02,159,14.454545454545455,5928.818181818182,3.81818181818182
Luke,Whitehead,7300,6,1,5,2,2,5,5,5.0,4.0,7760.0,1293.3333333333333,0.16666666666666666,0.8333333333333334,0.3333333333333333,0.3333333333333333,424,0.15,60,10.0,6108.166666666667,-1.0
Lóri,Kmecko,52596,1,0,0,0,0,0,1,10.0,36.0,1144.0,1144.0,0.0,0.0,0.0,0.0,165,0.0,21,21.0,5818.0,26.0
Maciej,Malinowski,5716,12,4,4,1,2,8,10,7.083333333333333,5.083333333333333,14890.0,1240.8333333333333,0.3333333333333333,0.3333333333333333,0.08333333333333333,0.16666666666666666,1146,1.69,145,12.083333333333334,5947.666666666667,-2.0
Manuel,Fuchs,3217,7,0,0,0,0,0,0,28.714285714285715,25.0,3536.0,505.14285714285717,0.0,0.0,0.0,0.0,-431,-1.27,120,17.142857142857142,5873.714285714285,-3.7142857142857153
Marco,Bischoff,1249,11,1,1,1,0,3,6,11.363636363636363,9.909090909090908,12474.0,1134.0,0.09090909090909091,0.09090909090909091,0.09090909090909091,0.0,-104,0.44999999999999996,181,16.454545454545453,5959.454545454545,-1.454545454545455
Marco,Lomi,22189,3,0,0,0,0,1,1,20.333333333333332,14.0,2248.0,749.3333333333334,0.0,0.0,0.0,0.0,66,-0.47,65,21.666666666666668,6075.0,-6.333333333333332
Marco,Ripper | GC-R,953,1,0,0,0,0,0,0,31.0,40.0,740.0,740.0,0.0,0.0,0.0,0.0,-50,0.01,3,3.0,5468.0,9.0
Marco,Schade,262,6,0,0,0,0,0,2,18.666666666666668,15.5,4544.0,757.3333333333334,0.0,0.0,0.0,0.0,12,-0.96,102,17.0,6017.166666666667,-3.166666666666668
Martin,Lorenc,8474,2,0,0,0,0,1,1,17.5,23.0,2036.0,1018.0,0.0,0.0,0.0,0.0,119,-0.41,84,42.0,5666.5,5.5
Mathys,Leitao,7174,1,0,0,0,0,0,0,28.0,25.0,794.0,794.0,0.0,0.0,0.0,0.0,-86,-0.46,32,32.0,5818.0,-3.0
Matija,Meks,72020,2,0,0,0,0,0,0,27.5,38.5,1606.0,803.0,0.0,0.0,0.0,0.0,-74,0.26,33,16.5,5922.5,11.0
Matthis,Krösche,85595,2,0,0,0,0,0,0,25.5,32.5,1678.0,839.0,0.0,0.0,0.0,0.0,0,-0.32,67,33.5,5752.0,7.0
Mattia,De Campo,31118,6,0,0,0,0,0,1,21.666666666666668,23.833333333333332,5490.0,915.0,0.0,0.0,0.0,0.0,-191,0.03,85,14.166666666666666,6049.5,2.1666666666666643
Max,Frank,24952,3,0,0,0,0,0,0,29.666666666666668,18.333333333333332,940.0,313.3333333333333,0.0,0.0,0.0,0.0,-255,-0.38,43,14.333333333333334,6142.333333333333,-11.333333333333336
Max,Meinecke,49128,1,0,0,0,0,0,0,23.0,39.0,884.0,884.0,0.0,0.0,0.0,0.0,20,-0.06,19,19.0,6055.0,16.0
Michael,Eberstein,1649,1,0,0,0,0,0,0,37.0,23.0,0.0,0.0,0.0,0.0,0.0,0.0,-130,-0.6,16,16.0,5771.0,-14.0
Michael,Frei,78285,12,0,0,0,0,0,3,19.833333333333332,16.833333333333332,10062.0,838.5,0.0,0.0,0.0,0.0,5,-1.14,236,19.666666666666668,5947.666666666667,-3.0
Mirvet,Begović,907,1,0,0,0,0,0,0,30.0,29.0,758.0,758.0,0.0,0.0,0.0,0.0,-93,0.0,14,14.0,5862.0,-1.0
Nicola,Russo,8112,1,0,0,0,0,0,0,34.0,37.0,686.0,686.0,0.0,0.0,0.0,0.0,-75,-0.05,23,23.0,5862.0,3.0
Nikita,Orazaev,83749,2,0,0,0,0,0,0,30.0,27.0,1516.0,758.0,0.0,0.0,0.0,0.0,-154,-0.28,62,31.0,6298.5,-3.0
Niklas,Houben,1806,4,0,1,0,0,2,2,13.75,6.75,3702.0,925.5,0.0,0.25,0.0,0.0,19,-0.39999999999999997,39,9.75,6098.75,-7.0
Niko,Pennanen,13510,6,0,0,0,0,0,0,21.666666666666668,31.5,5474.0,912.3333333333334,0.0,0.0,0.0,0.0,138,-0.87,173,28.833333333333332,5827.833333333333,9.833333333333332
Nils,Hartmann,73453,1,0,0,0,0,0,0,20.0,26.0,940.0,940.0,0.0,0.0,0.0,0.0,48,-0.3,37,37.0,5733.0,6.0
Noah,Eder,5109,10,0,0,0,0,1,3,16.9,13.9,7976.0,797.6,0.0,0.0,0.0,0.0,37,-0.99,179,17.9,5969.2,-2.9999999999999982
Noel,Hachay,67301,2,0,0,0,0,0,0,25.0,30.5,1696.0,848.0,0.0,0.0,0.0,0.0,2,0.0,37,18.5,5600.5,5.5
Oleksandr,Kniazhytsyn,44629,1,0,0,0,0,0,0,30.0,25.0,758.0,758.0,0.0,0.0,0.0,0.0,-42,-0.2,41,41.0,5980.0,-5.0
Oliver,Martens,7327,2,0,0,0,0,0,0,14.0,17.5,2120.0,1060.0,0.0,0.0,0.0,0.0,151,-0.15,56,28.0,5643.0,3.5
Patrick,Piel,5969,1,0,0,0,0,0,0,22.0,34.0,902.0,902.0,0.0,0.0,0.0,0.0,-2,0.0,1,1.0,5771.0,12.0
Patrick,Pignone,1862,1,0,0,0,0,0,0,11.0,16.0,1120.0,1120.0,0.0,0.0,0.0,0.0,94,0.0,12,12.0,5771.0,5.0
Paul,Lobmaier,14494,11,0,0,1,0,1,3,16.727272727272727,17.272727272727273,11142.0,1012.9090909090909,0.0,0.0,0.09090909090909091,0.0,-88,-0.009999999999999884,202,18.363636363636363,5963.727272727273,0.5454545454545467
Pavel,Vinogradov,79230,2,0,0,0,0,0,0,22.5,27.0,1788.0,894.0,0.0,0.0,0.0,0.0,51,-0.58,70,35.0,5752.0,4.5
Peter,Duivelaar,82072,1,0,0,0,0,0,0,12.0,24.0,1100.0,1100.0,0.0,0.0,0.0,0.0,13,0.09,6,6.0,6068.0,12.0
Philip,Minnaar,20516,10,0,2,0,1,3,8,10.7,9.4,10796.0,1079.6,0.0,0.2,0.0,0.1,592,0.78,125,12.5,6013.3,-1.299999999999999
Richard,Antal,42821,1,0,0,0,0,0,0,30.0,34.0,758.0,758.0,0.0,0.0,0.0,0.0,-61,0.04,25,25.0,5468.0,4.0
Rico,Tonert,65594,2,0,0,0,0,0,0,20.5,24.5,1864.0,932.0,0.0,0.0,0.0,0.0,114,0.0,13,6.5,5797.5,4.0
Romains,kOLBATh,19231,1,0,0,0,0,0,0,33.0,24.0,704.0,704.0,0.0,0.0,0.0,0.0,-89,-0.42,38,38.0,5733.0,-9.0
Ryan,Cooper,2771,1,0,0,0,0,0,0,15.0,30.0,1040.0,1040.0,0.0,0.0,0.0,0.0,103,0.0,20,20.0,5468.0,15.0
Sakari,Lehtinen,17884,1,0,0,0,0,0,0,11.0,16.0,1120.0,1120.0,0.0,0.0,0.0,0.0,107,0.0,5,5.0,6055.0,5.0
Sam,Gaskell,111486,11,0,0,0,0,0,0,19.363636363636363,16.545454545454547,9840.0,894.5454545454545,0.0,0.0,0.0,0.0,-274,-1.0899999999999999,223,20.272727272727273,5944.727272727273,-2.8181818181818166
Samir,Foch,2683,7,0,0,0,0,0,0,26.142857142857142,28.285714285714285,4566.0,652.2857142857143,0.0,0.0,0.0,0.0,-215,-0.5299999999999998,105,15.0,6041.428571428572,2.1428571428571423
Samuele,Brugnara,37012,1,0,0,0,0,0,0,29.0,36.0,776.0,776.0,0.0,0.0,0.0,0.0,-42,-0.02,22,22.0,5862.0,7.0
Sascha,Wasner,1032,6,0,0,0,0,0,1,27.166666666666668,23.333333333333332,3090.0,515.0,0.0,0.0,0.0,0.0,-505,-1.0899999999999999,70,11.666666666666666,5948.833333333333,-3.8333333333333357
Sebastian,Zehentner,6930,1,0,0,0,0,0,0,35.0,16.0,0.0,0.0,0.0,0.0,0.0,0.0,-194,0.0,8,8.0,5733.0,-19.0
Stefan,Zero | GC-R,951,1,0,0,0,0,0,0,33.0,39.0,704.0,704.0,0.0,0.0,0.0,0.0,-72,-0.03,26,26.0,5468.0,6.0
Steven,Dufrenne,69727,1,0,0,0,0,0,0,14.0,17.0,1060.0,1060.0,0.0,0.0,0.0,0.0,75,-0.07,23,23.0,5733.0,3.0
Steven,Dufrenne | RR,69727,1,0,0,0,0,0,0,31.0,29.0,740.0,740.0,0.0,0.0,0.0,0.0,-150,-0.18,19,19.0,6155.0,-2.0
Taariq,Adam,2716,1,0,0,0,0,0,0,15.0,13.0,1040.0,1040.0,0.0,0.0,0.0,0.0,66,0.05,17,17.0,6068.0,-2.0
Teemu,Karppinen,5913,5,0,0,1,1,1,4,13.6,9.4,4776.0,955.2,0.0,0.0,0.2,0.2,329,-0.46,132,26.4,5985.0,-4.199999999999999
Thomas,Ehrentraut | LSD,3665,1,0,0,0,0,0,0,26.0,36.0,830.0,830.0,0.0,0.0,0.0,0.0,-9,0.0,18,18.0,5468.0,10.0
Thomas,Mourant,16695,6,0,0,0,0,0,0,25.666666666666668,32.833333333333336,5032.0,838.6666666666666,0.0,0.0,0.0,0.0,-287,0.31000000000000005,95,15.833333333333334,5927.166666666667,7.166666666666668
Thomas,Schameitat,4461,1,0,0,0,0,0,0,22.0,37.0,902.0,902.0,0.0,0.0,0.0,0.0,32,0.0,10,10.0,5980.0,15.0
Tim,Pietschmann,2810,1,0,0,0,0,0,0,39.0,35.0,0.0,0.0,0.0,0.0,0.0,0.0,-145,-0.6,18,18.0,6305.0,-4.0
Tinko,van der Velde,5041,1,0,0,0,0,0,0,23.0,24.0,884.0,884.0,0.0,0.0,0.0,0.0,-87,-0.08,23,23.0,6305.0,1.0
Tobias,Moberg,98978,10,0,0,0,0,0,0,27.5,26.8,5272.0,527.2,0.0,0.0,0.0,0.0,-709,-1.22,203,20.3,5945.5,-0.6999999999999993
Tommy,Lyden,12798,1,0,0,0,0,0,0,32.0,18.0,0.0,0.0,0.0,0.0,0.0,0.0,-147,-0.6,14,14.0,5771.0,-14.0
Tommy,Razeyre,7798,6,0,0,0,0,0,2,16.166666666666668,19.5,6150.0,1025.0,0.0,0.0,0.0,0.0,335,0.0,83,13.833333333333334,6010.0,3.333333333333332
Valentin,Barrier,15629,10,0,1,0,1,1,4,14.5,14.5,10612.0,1061.2,0.0,0.1,0.0,0.1,79,0.36000000000000004,202,20.2,5958.4,0.0
Vincent,Proell,74711,10,0,0,0,0,0,0,22.0,27.2,9060.0,906.0,0.0,0.0,0.0,0.0,74,-0.22,223,22.3,5877.5,5.199999999999999
Vladislav,Kolosov,17918,6,0,0,0,0,0,0,23.5,30.0,4492.0,748.6666666666666,0.0,0.0,0.0,0.0,-336,0.49000000000000005,101,16.833333333333332,6029.166666666667,6.5
Yann,Ela,85212,1,0,0,0,0,0,0,24.0,25.0,866.0,866.0,0.0,0.0,0.0,0.0,-3,-0.33,38,38.0,5771.0,1.0
Zach,Doran,40682,5,0,0,0,0,0,0,28.4,27.0,2688.0,537.6,0.0,0.0,0.0,0.0,-327,-1.24,128,25.6,5881.0,-1.3999999999999986
Øystein,Brennum,40012,4,0,0,0,0,0,1,17.0,20.25,4024.0,1006.0,0.0,0.0,0.0,0.0,96,-0.01999999999999999,63,15.75,6130.75,3.25
