vorname,nachname,user_id,Races,Wins,Podiums,Pole_Positions,Fastest_Laps,Top5s,Top10s,Avg_Finishing,Avg_Qualifying,Points,Points_per_Race,Winrate,Podiumrate,Pole_Position_Rate,Fastest_Lap_Rate,Sum_Elo_Gain,Sum_SR_Gain,Sum_IPs,IP_per_Race,average_SOF,Q_to_R
Abe,Santema,13576,9,0,0,0,0,0,0,24.88888888888889,26.11111111111111,6980.0,775.5555555555555,0.0,0.0,0.0,0.0,-296,-0.030000000000000027,163,18.11111111111111,5968.444444444444,1.2222222222222214
Adam,Csaplar,84372,1,0,0,0,0,0,0,37.0,30.0,632.0,632.0,0.0,0.0,0.0,0.0,-108,-0.34,10,10.0,5210.0,-7.0
Adam,Szpanski,20921,7,0,0,0,0,0,3,16.142857142857142,17.142857142857142,7176.0,1025.142857142857,0.0,0.0,0.0,0.0,-104,0.37,104,14.857142857142858,5918.285714285715,1.0
Aidan,Walsingham,33715,11,0,1,0,0,2,5,13.272727272727273,12.181818181818182,11348.0,1031.6363636363637,0.0,0.09090909090909091,0.0,0.0,340,0.8400000000000001,137,12.454545454545455,5794.454545454545,-1.0909090909090917
Albin,Månsson,38321,9,0,0,0,0,0,0,22.22222222222222,25.333333333333332,7430.0,825.5555555555555,0.0,0.0,0.0,0.0,-65,0.32,149,16.555555555555557,5934.0,3.1111111111111107
Alex,Torregrosa,95891,2,0,0,0,0,0,0,22.5,24.0,1800.0,900.0,0.0,0.0,0.0,0.0,20,0.0,24,12.0,5979.0,1.5
Alexander,Krouk,21237,2,0,0,0,0,0,0,25.0,35.0,1696.0,848.0,0.0,0.0,0.0,0.0,-4,0.0,34,17.0,5176.5,10.0
Alexander,Link,43455,1,0,0,0,0,0,0,31.0,32.0,740.0,740.0,0.0,0.0,0.0,0.0,-27,-0.1,31,31.0,5143.0,1.0
Amir,Hosseini,18938,5,0,0,0,0,0,1,17.2,12.6,4360.0,872.0,0.0,0.0,0.0,0.0,216,-0.21999999999999997,51,10.2,5831.0,-4.6
Andre,Trafka,7836,1,0,0,0,0,0,0,22.0,35.0,902.0,902.0,0.0,0.0,0.0,0.0,15,0.14,11,11.0,6119.0,13.0
Andrii,Pozdniakov,36921,1,0,0,0,0,0,0,26.0,33.0,830.0,830.0,0.0,0.0,0.0,0.0,-3,-0.19,31,31.0,5663.0,7.0
Andy,King,36850,1,0,0,0,0,0,0,34.0,38.0,686.0,686.0,0.0,0.0,0.0,0.0,-59,0.03,27,27.0,5143.0,4.0
Angel,Inostroza,41974,4,0,0,0,0,0,0,23.25,24.5,2868.0,717.0,0.0,0.0,0.0,0.0,-8,-0.5599999999999999,90,22.5,5980.5,1.25
Angus,Fender,15837,1,0,0,0,0,0,0,14.0,14.0,1060.0,1060.0,0.0,0.0,0.0,0.0,74,0.0,14,14.0,5210.0,0.0
Brandon,Reyes | RVLT,52892,1,0,0,0,0,0,0,26.0,20.0,830.0,830.0,0.0,0.0,0.0,0.0,-17,-0.01,28,28.0,6029.0,-6.0
Christophe,Verstrepen,12771,1,0,0,0,0,0,0,21.0,35.0,920.0,920.0,0.0,0.0,0.0,0.0,15,0.09,18,18.0,5869.0,14.0
Christopher,Hoffmann,3264,1,0,0,0,0,0,0,13.0,34.0,1080.0,1080.0,0.0,0.0,0.0,0.0,106,0.2,8,8.0,5663.0,21.0
Cody,Sherratt,26085,8,0,0,0,0,1,3,17.75,15.875,7360.0,920.0,0.0,0.0,0.0,0.0,321,0.73,105,13.125,5893.0,-1.875
Daniel,Dara,41441,1,0,0,0,0,0,0,33.0,37.0,704.0,704.0,0.0,0.0,0.0,0.0,-79,-0.17,24,24.0,5210.0,4.0
Daniil,Tylyk,29498,2,0,0,0,0,1,1,13.5,17.0,2180.0,1090.0,0.0,0.0,0.0,0.0,169,0.06,35,17.5,5950.0,3.5
Dario,iemmulo,42095,12,0,4,0,1,7,10,7.5,7.0,13880.0,1156.6666666666667,0.0,0.3333333333333333,0.0,0.08333333333333333,994,0.22999999999999998,206,17.166666666666668,5811.0,-0.5
David,Pertile,4976,1,0,0,0,0,0,0,14.0,20.0,1060.0,1060.0,0.0,0.0,0.0,0.0,87,0.12,31,31.0,5869.0,6.0
Dennis,Wietschorke,62174,10,0,0,0,0,0,0,22.4,26.6,8300.0,830.0,0.0,0.0,0.0,0.0,-197,-0.69,204,20.4,5937.9,4.200000000000003
Dáire,McCormack,4911,10,3,3,4,3,6,7,10.4,3.6,10404.0,1040.4,0.3,0.3,0.4,0.3,802,-0.6399999999999999,133,13.3,5865.4,-6.800000000000001
Egor,Ogorodnikov,19008,4,0,0,0,0,0,0,31.75,30.75,1588.0,397.0,0.0,0.0,0.0,0.0,-341,-0.33000000000000007,66,16.5,6005.0,-1.0
Emanuele,Tajeddine,35354,2,0,0,0,0,0,0,19.0,15.0,1930.0,965.0,0.0,0.0,0.0,0.0,-11,-0.10999999999999999,52,26.0,6013.0,-4.0
Eric,Dreher,114799,1,0,0,0,0,0,0,40.0,31.0,0.0,0.0,0.0,0.0,0.0,0.0,-144,-0.29,10,10.0,5143.0,-9.0
Erik,Gesell,46036,3,0,0,0,0,0,0,26.333333333333332,23.666666666666668,2492.0,830.6666666666666,0.0,0.0,0.0,0.0,-74,-0.6799999999999999,81,27.0,6040.333333333333,-2.6666666666666643
Fabio,Zerbin,89924,2,0,0,0,0,0,0,28.5,16.5,980.0,490.0,0.0,0.0,0.0,0.0,-110,-0.52,23,11.5,5176.5,-12.0
Fabrizio,Campanella,25889,6,0,0,0,1,0,2,14.833333333333334,18.5,6320.0,1053.3333333333333,0.0,0.0,0.0,0.16666666666666666,387,0.49,84,14.0,5746.833333333333,3.666666666666666
Felix,Brüdern,484,2,0,0,0,0,0,0,28.0,20.0,1000.0,500.0,0.0,0.0,0.0,0.0,-102,-0.5499999999999999,46,23.0,6074.0,-8.0
Felix,Tazvinzwa-Hacker,5869,3,0,0,0,0,0,1,20.333333333333332,13.333333333333334,2240.0,746.6666666666666,0.0,0.0,0.0,0.0,83,-0.24,34,11.333333333333334,5873.666666666667,-6.999999999999998
Florian,Dührkop,3933,2,0,0,0,0,0,0,31.0,28.0,758.0,379.0,0.0,0.0,0.0,0.0,-200,-1.07,53,26.5,5964.0,-3.0
Geert,Fischer,2620,5,0,0,0,0,0,2,20.8,12.0,3436.0,687.2,0.0,0.0,0.0,0.0,28,-0.86,94,18.8,5741.6,-8.8
George,Boothby,4215,12,1,8,2,1,10,12,3.5833333333333335,5.25,15776.0,1314.6666666666667,0.08333333333333333,0.6666666666666666,0.16666666666666666,0.08333333333333333,738,0.8,113,9.416666666666666,5811.0,1.6666666666666665
Grantas,Kareckas,8357,2,0,1,0,0,1,1,19.0,2.0,1360.0,680.0,0.0,0.5,0.0,0.0,-125,-0.42999999999999994,19,9.5,6011.0,-17.0
Gábor,Pór,45054,2,0,0,0,0,0,0,30.5,24.5,1498.0,749.0,0.0,0.0,0.0,0.0,-95,0.19,37,18.5,5176.5,-6.0
Harley,Chamberlain,8077,1,0,0,0,0,0,0,35.0,9.0,668.0,668.0,0.0,0.0,0.0,0.0,-121,0.0,10,10.0,5780.0,-26.0
Henrik,Gamball,795,4,0,0,0,0,0,1,21.5,19.75,3684.0,921.0,0.0,0.0,0.0,0.0,-33,0.010000000000000002,74,18.5,5727.75,-1.75
Henry,Meyer,41344,1,0,0,0,0,0,0,20.0,29.0,940.0,940.0,0.0,0.0,0.0,0.0,59,0.01,26,26.0,5143.0,9.0
Igor,Ornst,3548,1,0,0,0,0,0,0,24.0,15.0,866.0,866.0,0.0,0.0,0.0,0.0,4,0.08,16,16.0,5143.0,-9.0
Jack,Alexander,6623,2,0,1,0,0,1,1,20.5,8.0,1326.0,663.0,0.0,0.5,0.0,0.0,35,-0.36,25,12.5,5921.0,-12.5
Jake,Wells,39889,1,0,0,0,0,0,0,32.0,34.0,722.0,722.0,0.0,0.0,0.0,0.0,-70,-0.03,20,20.0,5210.0,2.0
Jakob,Ostermann,1063,1,1,1,0,0,1,1,1.0,2.0,1400.0,1400.0,1.0,1.0,0.0,0.0,143,0.22,7,7.0,5869.0,1.0
Jakob,Schaber,47654,1,0,0,0,0,0,0,32.0,27.0,0.0,0.0,0.0,0.0,0.0,0.0,-58,-0.55,31,31.0,5663.0,-5.0
Jan Philipp,Nürnberger,29494,1,0,0,0,0,0,0,27.0,8.0,812.0,812.0,0.0,0.0,0.0,0.0,-20,-0.58,62,62.0,5663.0,-19.0
Jann,Jöge,10526,1,0,0,0,0,0,0,19.0,31.0,960.0,960.0,0.0,0.0,0.0,0.0,47,0.12,15,15.0,5780.0,12.0
Janne,Laxén,78786,1,0,0,0,0,0,0,19.0,40.0,960.0,960.0,0.0,0.0,0.0,0.0,76,0.14,14,14.0,5143.0,21.0
Jaroslav,Honzik,14298,12,1,1,0,0,1,2,11.666666666666666,21.166666666666668,13368.0,1114.0,0.08333333333333333,0.08333333333333333,0.0,0.0,287,-8.673617379884035e-18,177,14.75,5811.0,9.500000000000002
Jonathan,Clifford,15373,2,0,0,0,0,0,0,28.5,37.5,1570.0,785.0,0.0,0.0,0.0,0.0,-65,0.0,22,11.0,5176.5,9.0
Justin,Stubenrauch,1229,1,0,0,0,0,0,0,19.0,26.0,960.0,960.0,0.0,0.0,0.0,0.0,42,0.13,13,13.0,5210.0,7.0
Jyeed,Hutchinson,8613,3,0,0,0,0,0,0,28.0,11.333333333333334,1060.0,353.3333333333333,0.0,0.0,0.0,0.0,-296,-0.65,36,12.0,6037.666666666667,-16.666666666666664
Kaj,Paw,79530,1,0,0,0,0,0,0,19.0,39.0,960.0,960.0,0.0,0.0,0.0,0.0,72,-0.02,25,25.0,5663.0,20.0
Kamil,Pawlowski,59249,1,0,0,0,0,0,0,15.0,10.0,1040.0,1040.0,0.0,0.0,0.0,0.0,75,0.11,19,19.0,5973.0,-5.0
Kenzie,Bailey,103818,1,0,0,0,0,0,0,26.0,29.0,830.0,830.0,0.0,0.0,0.0,0.0,6,-0.24,27,27.0,5210.0,3.0
Kevin,Schwärz,70371,1,0,0,0,0,0,0,40.0,35.0,0.0,0.0,0.0,0.0,0.0,0.0,-191,-0.6,12,12.0,6029.0,-5.0
Kevin,Taddei,40102,3,0,0,0,0,1,1,17.0,19.0,2308.0,769.3333333333334,0.0,0.0,0.0,0.0,191,-0.29000000000000004,54,18.0,5338.666666666667,2.0
Kieran,Prendergast,10569,1,0,0,0,0,0,0,38.0,24.0,0.0,0.0,0.0,0.0,0.0,0.0,-136,-0.55,15,15.0,5210.0,-14.0
Kirill,Maze,20827,1,0,0,0,0,0,0,13.0,11.0,1080.0,1080.0,0.0,0.0,0.0,0.0,90,0.0,19,19.0,5210.0,-2.0
Konstantin,Pavlov,97770,1,0,0,0,0,0,0,30.0,33.0,758.0,758.0,0.0,0.0,0.0,0.0,-7,-0.22,36,36.0,5143.0,3.0
Krzysztof,Maczkowski,18361,4,0,0,0,0,0,0,28.75,37.75,3122.0,780.5,0.0,0.0,0.0,0.0,-221,0.32,75,18.75,6012.0,9.0
Krzysztof,Stachecki,1870,1,0,0,0,0,0,0,23.0,35.0,884.0,884.0,0.0,0.0,0.0,0.0,29,0.22,10,10.0,5780.0,12.0
Laurence,Hardwick,65650,1,0,0,0,0,0,0,31.0,33.0,740.0,740.0,0.0,0.0,0.0,0.0,-43,0.05,9,9.0,5210.0,2.0
Laurens,Van Rossem,99685,2,0,0,0,0,0,0,28.5,25.0,1570.0,785.0,0.0,0.0,0.0,0.0,-26,0.07,21,10.5,5176.5,-3.5
Laurin,Prime,1247,3,0,0,0,0,0,0,27.0,30.0,2436.0,812.0,0.0,0.0,0.0,0.0,-113,0.19,62,20.666666666666668,5925.666666666667,3.0
Lewis,Boosive,73862,1,0,0,0,0,0,0,35.0,36.0,668.0,668.0,0.0,0.0,0.0,0.0,-60,-0.19,34,34.0,5143.0,1.0
Loys,Regnier,14778,3,0,0,0,0,0,0,29.0,28.666666666666668,1758.0,586.0,0.0,0.0,0.0,0.0,-266,-0.2899999999999999,33,11.0,6019.0,-0.33333333333333215
Loys,Regnier | SDL,14778,1,0,0,0,0,0,0,34.0,27.0,686.0,686.0,0.0,0.0,0.0,0.0,-108,-0.36,25,25.0,6029.0,-7.0
Luca,Wieninger | RVLT,23431,1,0,0,0,0,0,0,16.0,26.0,1020.0,1020.0,0.0,0.0,0.0,0.0,79,0.12,16,16.0,5780.0,10.0
Luis,Fleischer,914,1,0,0,0,0,0,0,13.0,26.0,1080.0,1080.0,0.0,0.0,0.0,0.0,104,0.07,15,15.0,6053.0,13.0
Luis,Roters,4439,1,0,0,0,0,0,0,17.0,7.0,1000.0,1000.0,0.0,0.0,0.0,0.0,31,-0.27,38,38.0,5869.0,-10.0
Lukas,Schnekenburger,2522,1,0,0,0,0,0,0,33.0,30.0,0.0,0.0,0.0,0.0,0.0,0.0,-92,-0.6,17,17.0,5663.0,-3.0
Luke,Addison,7021,9,0,0,0,0,0,0,23.444444444444443,23.11111111111111,5890.0,654.4444444444445,0.0,0.0,0.0,0.0,-338,-1.0999999999999999,111,12.333333333333334,5853.333333333333,-0.33333333333333215
Luke,Whitehead,7300,2,0,0,0,0,0,0,32.0,11.5,776.0,388.0,0.0,0.0,0.0,0.0,-375,-0.34,43,21.5,6074.0,-20.5
Lóri,Kmecko,52596,1,0,0,0,0,0,0,34.0,34.0,686.0,686.0,0.0,0.0,0.0,0.0,-100,0.0,23,23.0,5780.0,0.0
Maciej,Malinowski,5716,10,1,1,1,1,1,4,14.5,11.8,10648.0,1064.8,0.1,0.1,0.1,0.1,636,0.040000000000000036,227,22.7,5853.6,-2.6999999999999993
Manuel,Fuchs,3217,1,0,0,0,0,0,0,16.0,10.0,1020.0,1020.0,0.0,0.0,0.0,0.0,58,0.19,12,12.0,5143.0,-6.0
Manuel,Fuchs | FSRT,3217,1,0,0,0,0,0,0,17.0,20.0,1000.0,1000.0,0.0,0.0,0.0,0.0,68,0.02,18,18.0,5210.0,3.0
Marcel,Tamo,24233,1,0,0,0,0,0,0,23.0,4.0,884.0,884.0,0.0,0.0,0.0,0.0,-121,0.03,15,15.0,6053.0,-19.0
Marco,Bischoff,1249,12,1,3,1,1,4,9,9.833333333333334,12.25,14020.0,1168.3333333333333,0.08333333333333333,0.25,0.08333333333333333,0.08333333333333333,-62,-0.5,219,18.25,5811.0,2.416666666666666
Marco,Jonkers,32465,1,0,0,0,0,0,1,7.0,4.0,1216.0,1216.0,0.0,0.0,0.0,0.0,133,0.0,27,27.0,5143.0,-3.0
Marco,Schade,262,8,0,0,0,1,1,1,22.875,21.875,6498.0,812.25,0.0,0.0,0.0,0.125,-365,-0.52,177,22.125,5803.375,-1.0
Marco,Wong,9776,2,0,0,0,0,0,0,19.0,16.5,1120.0,560.0,0.0,0.0,0.0,0.0,4,0.11,29,14.5,6013.0,-2.5
Martin,Lorenc,8474,1,0,0,0,0,0,0,31.0,34.0,740.0,740.0,0.0,0.0,0.0,0.0,-73,-0.16,33,33.0,5869.0,3.0
Mateusz,Tyszkiewicz,64261,4,0,0,0,0,0,1,21.75,18.0,3064.0,766.0,0.0,0.0,0.0,0.0,60,-0.48,82,20.5,5942.5,-3.75
Mathias,Kuhn,5750,3,0,0,0,0,0,2,14.666666666666666,10.333333333333334,3178.0,1059.3333333333333,0.0,0.0,0.0,0.0,34,0.21,50,16.666666666666668,6015.666666666667,-4.333333333333332
Matija,Meks,72020,3,0,0,0,0,0,0,26.333333333333332,33.666666666666664,2472.0,824.0,0.0,0.0,0.0,0.0,-89,0.0,39,13.0,5832.333333333333,7.333333333333332
Mattia,De Campo,31118,6,0,0,0,0,0,0,24.0,27.0,5212.0,868.6666666666666,0.0,0.0,0.0,0.0,-284,-0.08,123,20.5,6002.333333333333,3.0
Max,Florenz,11888,1,0,0,0,0,0,1,9.0,9.0,1168.0,1168.0,0.0,0.0,0.0,0.0,108,0.23,4,4.0,5993.0,0.0
Michael,Frei,78285,10,0,0,0,0,0,2,18.8,22.5,9728.0,972.8,0.0,0.0,0.0,0.0,169,0.29000000000000004,185,18.5,5758.4,3.6999999999999993
Michael,Moening,25561,2,0,0,0,0,0,0,29.5,21.5,758.0,379.0,0.0,0.0,0.0,0.0,-183,-0.62,50,25.0,5961.0,-8.0
Michael,Thomas,39684,1,0,0,0,0,0,0,21.0,15.0,920.0,920.0,0.0,0.0,0.0,0.0,20,0.23,4,4.0,5210.0,-6.0
Michał,Pochopień,41771,1,0,0,0,0,0,0,30.0,36.0,758.0,758.0,0.0,0.0,0.0,0.0,-29,0.0,14,14.0,5210.0,6.0
Nikita,Orazaev,83749,2,0,0,0,0,0,0,28.0,27.0,1588.0,794.0,0.0,0.0,0.0,0.0,-105,-0.21000000000000002,47,23.5,5886.5,-1.0
Niklas,Houben,1806,3,0,0,0,0,0,2,18.333333333333332,10.666666666666666,2408.0,802.6666666666666,0.0,0.0,0.0,0.0,-80,-0.62,46,15.333333333333334,6047.0,-7.666666666666666
Nikodem,Sobczyk,18868,2,0,0,0,0,0,0,38.5,25.0,0.0,0.0,0.0,0.0,0.0,0.0,-274,-1.08,8,4.0,5721.5,-13.5
Nikolay,Polyakov,25698,3,0,0,0,0,0,0,32.666666666666664,38.333333333333336,1390.0,463.3333333333333,0.0,0.0,0.0,0.0,-267,-0.35,84,28.0,6027.666666666667,5.666666666666671
Nils,Naujoks,2661,12,3,10,4,1,10,11,4.416666666666667,3.4166666666666665,15622.0,1301.8333333333333,0.25,0.8333333333333334,0.3333333333333333,0.08333333333333333,1060,0.71,89,7.416666666666667,5811.0,-1.0000000000000004
Nils,Steinbrenner,675,2,0,0,0,0,0,0,31.0,35.0,1480.0,740.0,0.0,0.0,0.0,0.0,-235,-0.31,59,29.5,6074.0,4.0
Noah,Eder,5109,12,0,1,0,0,1,6,15.833333333333334,10.333333333333334,11772.0,981.0,0.0,0.08333333333333333,0.0,0.0,359,0.42000000000000004,232,19.333333333333332,5811.0,-5.5
Noel,Hachay,67301,1,0,0,0,0,0,0,12.0,22.0,1100.0,1100.0,0.0,0.0,0.0,0.0,157,0.29,4,4.0,5143.0,10.0
Oleksandr,Kniazhytsyn,44629,3,0,0,0,0,0,0,27.0,24.333333333333332,2436.0,812.0,0.0,0.0,0.0,0.0,-146,-0.58,98,32.666666666666664,5688.333333333333,-2.666666666666668
Oliver,Martens,7327,5,0,0,0,0,0,0,27.6,30.8,3358.0,671.6,0.0,0.0,0.0,0.0,-267,0.15000000000000002,78,15.6,6008.2,3.1999999999999993
Paul,Lobmaier,14494,3,0,0,0,0,0,1,22.0,24.666666666666668,2128.0,709.3333333333334,0.0,0.0,0.0,0.0,-111,-0.21999999999999997,22,7.333333333333333,6027.666666666667,2.666666666666668
Philip,Minnaar,20516,11,0,0,0,1,4,7,9.909090909090908,8.818181818181818,12722.0,1156.5454545454545,0.0,0.0,0.0,0.09090909090909091,1129,0.92,173,15.727272727272727,5871.727272727273,-1.09090909090909
Reno,Kööts,50634,2,0,0,0,0,0,1,23.0,14.0,1216.0,608.0,0.0,0.0,0.0,0.0,-37,-0.48,17,8.5,5858.0,-9.0
Riccardo,Hillegeist,35301,1,0,0,0,0,0,0,21.0,36.0,920.0,920.0,0.0,0.0,0.0,0.0,41,-0.31,37,37.0,5663.0,15.0
Sakari,Lehtinen,17884,3,0,0,0,0,1,1,20.666666666666668,15.666666666666666,2848.0,949.3333333333334,0.0,0.0,0.0,0.0,5,-0.22,54,18.0,5854.0,-5.000000000000002
Samir,Foch,2683,3,0,0,0,0,0,0,31.666666666666668,37.0,1552.0,517.3333333333334,0.0,0.0,0.0,0.0,-248,-0.6799999999999999,52,17.333333333333332,6037.666666666667,5.333333333333332
Sascha,Wasner,1032,11,0,0,0,0,0,0,22.09090909090909,26.454545454545453,8650.0,786.3636363636364,0.0,0.0,0.0,0.0,-387,-0.54,190,17.272727272727273,5824.454545454545,4.363636363636363
Sean,Tempest,43061,2,0,0,0,0,0,0,28.5,31.5,1570.0,785.0,0.0,0.0,0.0,0.0,-189,0.0,37,18.5,5997.0,3.0
Shaun,Arnold,81511,2,0,0,0,0,0,1,22.0,13.0,1842.0,921.0,0.0,0.0,0.0,0.0,10,0.24,23,11.5,5539.5,-9.0
Stefano,Bernardi,17378,1,0,0,0,0,0,0,32.0,31.0,722.0,722.0,0.0,0.0,0.0,0.0,-91,-0.05,32,32.0,5973.0,-1.0
Taariq,Adam,2716,5,0,0,0,0,0,0,27.0,21.6,2020.0,404.0,0.0,0.0,0.0,0.0,-246,-1.7799999999999998,106,21.2,5892.4,-5.399999999999999
Teemu,Karppinen,5913,8,0,0,0,0,0,1,23.25,15.875,6430.0,803.75,0.0,0.0,0.0,0.0,-209,-0.3,181,22.625,5923.875,-7.375
Thomas,Ehrentraut | LSD,3665,1,0,0,0,0,0,0,21.0,13.0,920.0,920.0,0.0,0.0,0.0,0.0,43,0.0,15,15.0,5143.0,-8.0
Thomas,Mourant,16695,4,0,0,0,0,0,0,25.75,36.5,3344.0,836.0,0.0,0.0,0.0,0.0,-134,0.08,54,13.5,5821.25,10.75
Thomas,Mourant | Tokota,16695,1,0,0,0,0,0,0,27.0,32.0,812.0,812.0,0.0,0.0,0.0,0.0,-31,0.0,4,4.0,5935.0,5.0
Thomas,Schneevogt,597,1,0,0,0,0,0,0,22.0,28.0,902.0,902.0,0.0,0.0,0.0,0.0,49,0.03,20,20.0,5210.0,6.0
Tinko,van der Velde,5041,7,1,1,0,1,2,5,9.0,12.714285714285714,8268.0,1181.142857142857,0.14285714285714285,0.14285714285714285,0.0,0.14285714285714285,285,0.29000000000000004,143,20.428571428571427,5909.714285714285,3.7142857142857135
Tobias,Moberg | HeX,98978,1,0,0,0,0,0,0,20.0,37.0,940.0,940.0,0.0,0.0,0.0,0.0,62,-0.1,33,33.0,5663.0,17.0
Tommy,Razeyre,7798,5,0,0,0,0,1,2,16.8,15.6,4460.0,892.0,0.0,0.0,0.0,0.0,259,0.0,55,11.0,5933.6,-1.200000000000001
Toni,Mahoni,65594,1,0,0,0,0,0,0,25.0,37.0,848.0,848.0,0.0,0.0,0.0,0.0,8,0.02,10,10.0,5780.0,12.0
Valentin,Barrier,15629,12,0,0,0,0,3,4,14.916666666666666,16.0,12644.0,1053.6666666666667,0.0,0.0,0.0,0.0,102,0.63,227,18.916666666666668,5811.0,1.083333333333334
Valentin,Rusu,25278,1,0,0,0,0,0,0,38.0,30.0,0.0,0.0,0.0,0.0,0.0,0.0,-101,-0.16,13,13.0,5143.0,-8.0
Ville,Synkkänen,32627,2,0,0,0,0,0,0,20.0,32.0,1890.0,945.0,0.0,0.0,0.0,0.0,101,0.0,47,23.5,5721.5,12.0
Vincent,Proell,74711,7,0,0,0,0,0,1,21.285714285714285,26.142857142857142,6438.0,919.7142857142857,0.0,0.0,0.0,0.0,62,-0.44999999999999996,146,20.857142857142858,5687.857142857143,4.857142857142858
Vladislav,Kolosov,17918,11,0,0,0,0,0,1,26.0,26.90909090909091,8586.0,780.5454545454545,0.0,0.0,0.0,0.0,-868,-0.36000000000000015,235,21.363636363636363,5824.454545454545,0.9090909090909101
Vojtěch,Neuwirth,2761,4,0,0,0,0,0,0,24.5,29.75,2828.0,707.0,0.0,0.0,0.0,0.0,-47,-0.14,53,13.25,5980.5,5.25
Will,Casson,43623,1,0,0,0,0,0,0,23.0,27.0,884.0,884.0,0.0,0.0,0.0,0.0,-9,0.13,12,12.0,5210.0,4.0
William,Pisano,47794,2,0,0,0,0,0,0,24.5,18.0,1722.0,861.0,0.0,0.0,0.0,0.0,-59,-0.05000000000000002,56,28.0,5766.0,-6.5
Yehor,Zvuzdetskyi,41842,3,0,0,0,0,0,0,31.666666666666668,25.333333333333332,1534.0,511.3333333333333,0.0,0.0,0.0,0.0,-271,-0.9,83,27.666666666666668,5580.666666666667,-6.333333333333336
Yentl,van Thielen,45552,1,0,0,0,0,0,0,37.0,17.0,0.0,0.0,0.0,0.0,0.0,0.0,-165,-0.6,4,4.0,5935.0,-20.0
Zach,Doran,40682,5,0,0,0,0,0,0,24.6,31.0,4276.0,855.2,0.0,0.0,0.0,0.0,-165,-0.23999999999999996,115,23.0,5817.8,6.399999999999999
Øystein,Brennum,40012,1,0,0,0,0,0,1,9.0,8.0,1168.0,1168.0,0.0,0.0,0.0,0.0,88,0.16,12,12.0,5143.0,-1.0
